ROLL: 6.66000 PITCH: 0.05000 YAW: 0.06000 SONAR1: 0.00000 MEDIANFILTERED: 0.00000 MEDIANDIFF: 0.00000 MEDIANINT: 0.00000 RAWSONAR: 0.00000 ROLLRATE: 0.01000 PITCHRATE: 0.02000 U1: 0.01000 U2: 0.02000 U3: 0.00000 U4: 0.00000 MDuty1: 5 MDuty2: 6 MDuty3: 7 MDuty4: 8 ChDuty1: 0 ChDuty2: 10 ChDuty3: 11 ChDuty4: 12 DesiredAltitude: 1.00 HoverMode: 1.000000 flightAllow: 1.000000  TIME:Thu Jul  4 13:08:55 2013

ROLL: 6.66000 PITCH: 0.05000 YAW: 0.06000 SONAR1: 0.00000 MEDIANFILTERED: 0.00000 MEDIANDIFF: 0.00000 MEDIANINT: 0.00000 RAWSONAR: 0.00000 ROLLRATE: 0.01000 PITCHRATE: 0.02000 U1: 0.01000 U2: 0.02000 U3: 0.00000 U4: 0.00000 MDuty1: 5 MDuty2: 6 MDuty3: 7 MDuty4: 8 ChDuty1: 0 ChDuty2: 10 ChDuty3: 11 ChDuty4: 12 DesiredAltitude: 1.00 HoverMode: 1.000000 flightAllow: 1.000000  TIME:Thu Jul  4 13:08:55 2013

ROLL: 6.66000 PITCH: 0.05000 YAW: 0.06000 SONAR1: 0.00000 MEDIANFILTERED: 0.00000 MEDIANDIFF: 0.00000 MEDIANINT: 0.00000 RAWSONAR: 0.00000 ROLLRATE: 0.01000 PITCHRATE: 0.02000 U1: 0.01000 U2: 0.02000 U3: 0.00000 U4: 0.00000 MDuty1: 5 MDuty2: 6 MDuty3: 7 MDuty4: 8 ChDuty1: 0 ChDuty2: 10 ChDuty3: 11 ChDuty4: 12 DesiredAltitude: 1.00 HoverMode: 1.000000 flightAllow: 1.000000  TIME:Thu Jul  4 13:08:55 2013

ROLL: 6.66000 PITCH: 0.05000 YAW: 0.06000 SONAR1: 0.00000 MEDIANFILTERED: 0.00000 MEDIANDIFF: 0.00000 MEDIANINT: 0.00000 RAWSONAR: 0.00000 ROLLRATE: 0.01000 PITCHRATE: 0.02000 U1: 0.01000 U2: 0.02000 U3: 0.00000 U4: 0.00000 MDuty1: 5 MDuty2: 6 MDuty3: 7 MDuty4: 8 ChDuty1: 0 ChDuty2: 10 ChDuty3: 11 ChDuty4: 12 DesiredAltitude: 1.00 HoverMode: 1.000000 flightAllow: 1.000000  TIME:Thu Jul  4 13:08:55 2013

ROLL: 6.66000 PITCH: 0.05000 YAW: 0.06000 SONAR1: 0.00000 MEDIANFILTERED: 0.00000 MEDIANDIFF: 0.00000 MEDIANINT: 0.00000 RAWSONAR: 0.00000 ROLLRATE: 0.01000 PITCHRATE: 0.02000 U1: 0.01000 U2: 0.02000 U3: 0.00000 U4: 0.00000 MDuty1: 5 MDuty2: 6 MDuty3: 7 MDuty4: 8 ChDuty1: 0 ChDuty2: 10 ChDuty3: 11 ChDuty4: 12 DesiredAltitude: 1.00 HoverMode: 1.000000 flightAllow: 1.000000  TIME:Thu Jul  4 13:08:55 2013

ROLL: 6.66000 PITCH: 0.05000 YAW: 0.06000 SONAR1: 0.00000 MEDIANFILTERED: 0.00000 MEDIANDIFF: 0.00000 MEDIANINT: 0.00000 RAWSONAR: 0.00000 ROLLRATE: 0.01000 PITCHRATE: 0.02000 U1: 0.01000 U2: 0.02000 U3: 0.00000 U4: 0.00000 MDuty1: 5 MDuty2: 6 MDuty3: 7 MDuty4: 8 ChDuty1: 0 ChDuty2: 10 ChDuty3: 11 ChDuty4: 12 DesiredAltitude: 1.00 HoverMode: 1.000000 flightAllow: 1.000000  TIME:Thu Jul  4 13:08:55 2013

ROLL: 6.66000 PITCH: 0.05000 YAW: 0.06000 SONAR1: 0.00000 MEDIANFILTERED: 0.00000 MEDIANDIFF: 0.00000 MEDIANINT: 0.00000 RAWSONAR: 0.00000 ROLLRATE: 0.01000 PITCHRATE: 0.02000 U1: 0.01000 U2: 0.02000 U3: 0.00000 U4: 0.00000 MDuty1: 5 MDuty2: 6 MDuty3: 7 MDuty4: 8 ChDuty1: 0 ChDuty2: 10 ChDuty3: 11 ChDuty4: 12 DesiredAltitude: 1.00 HoverMode: 1.000000 flightAllow: 1.000000  TIME:Thu Jul  4 13:08:55 2013

ROLL: 6.66000 PITCH: 0.05000 YAW: 0.06000 SONAR1: 0.00000 MEDIANFILTERED: 0.00000 MEDIANDIFF: 0.00000 MEDIANINT: 0.00000 RAWSONAR: 0.00000 ROLLRATE: 0.01000 PITCHRATE: 0.02000 U1: 0.01000 U2: 0.02000 U3: 0.00000 U4: 0.00000 MDuty1: 5 MDuty2: 6 MDuty3: 7 MDuty4: 8 ChDuty1: 0 ChDuty2: 10 ChDuty3: 11 ChDuty4: 12 DesiredAltitude: 1.00 HoverMode: 1.000000 flightAllow: 1.000000  TIME:Thu Jul  4 13:08:56 2013

ROLL: 6.66000 PITCH: 0.05000 YAW: 0.06000 SONAR1: 0.00000 MEDIANFILTERED: 0.00000 MEDIANDIFF: 0.00000 MEDIANINT: 0.00000 RAWSONAR: 0.00000 ROLLRATE: 0.01000 PITCHRATE: 0.02000 U1: 0.01000 U2: 0.02000 U3: 0.00000 U4: 0.00000 MDuty1: 5 MDuty2: 6 MDuty3: 7 MDuty4: 8 ChDuty1: 0 ChDuty2: 10 ChDuty3: 11 ChDuty4: 12 DesiredAltitude: 1.00 HoverMode: 1.000000 flightAllow: 1.000000  TIME:Thu Jul  4 13:08:56 2013

ROLL: 6.66000 PITCH: 0.05000 YAW: 0.06000 SONAR1: 0.00000 MEDIANFILTERED: 0.00000 MEDIANDIFF: 0.00000 MEDIANINT: 0.00000 RAWSONAR: 0.00000 ROLLRATE: 0.01000 PITCHRATE: 0.02000 U1: 0.01000 U2: 0.02000 U3: 0.00000 U4: 0.00000 MDuty1: 5 MDuty2: 6 MDuty3: 7 MDuty4: 8 ChDuty1: 0 ChDuty2: 10 ChDuty3: 11 ChDuty4: 12 DesiredAltitude: 1.00 HoverMode: 1.000000 flightAllow: 1.000000  TIME:Thu Jul  4 13:08:56 2013

ROLL: 6.66000 PITCH: 0.05000 YAW: 0.06000 SONAR1: 0.00000 MEDIANFILTERED: 0.00000 MEDIANDIFF: 0.00000 MEDIANINT: 0.00000 RAWSONAR: 0.00000 ROLLRATE: 0.01000 PITCHRATE: 0.02000 U1: 0.01000 U2: 0.02000 U3: 0.00000 U4: 0.00000 MDuty1: 5 MDuty2: 6 MDuty3: 7 MDuty4: 8 ChDuty1: 0 ChDuty2: 10 ChDuty3: 11 ChDuty4: 12 DesiredAltitude: 1.00 HoverMode: 1.000000 flightAllow: 1.000000  TIME:Thu Jul  4 13:08:56 2013

ROLL: 6.66000 PITCH: 0.05000 YAW: 0.06000 SONAR1: 0.00000 MEDIANFILTERED: 0.00000 MEDIANDIFF: 0.00000 MEDIANINT: 0.00000 RAWSONAR: 0.00000 ROLLRATE: 0.01000 PITCHRATE: 0.02000 U1: 0.01000 U2: 0.02000 U3: 0.00000 U4: 0.00000 MDuty1: 5 MDuty2: 6 MDuty3: 7 MDuty4: 8 ChDuty1: 0 ChDuty2: 10 ChDuty3: 11 ChDuty4: 12 DesiredAltitude: 1.00 HoverMode: 1.000000 flightAllow: 1.000000  TIME:Thu Jul  4 13:08:56 2013

ROLL: 6.66000 PITCH: 0.05000 YAW: 0.06000 SONAR1: 0.00000 MEDIANFILTERED: 0.00000 MEDIANDIFF: 0.00000 MEDIANINT: 0.00000 RAWSONAR: 0.00000 ROLLRATE: 0.01000 PITCHRATE: 0.02000 U1: 0.01000 U2: 0.02000 U3: 0.00000 U4: 0.00000 MDuty1: 5 MDuty2: 6 MDuty3: 7 MDuty4: 8 ChDuty1: 0 ChDuty2: 10 ChDuty3: 11 ChDuty4: 12 DesiredAltitude: 1.00 HoverMode: 1.000000 flightAllow: 1.000000  TIME:Thu Jul  4 13:08:56 2013

ROLL: 6.66000 PITCH: 0.05000 YAW: 0.06000 SONAR1: 0.00000 MEDIANFILTERED: 0.00000 MEDIANDIFF: 0.00000 MEDIANINT: 0.00000 RAWSONAR: 0.00000 ROLLRATE: 0.01000 PITCHRATE: 0.02000 U1: 0.01000 U2: 0.02000 U3: 0.00000 U4: 0.00000 MDuty1: 5 MDuty2: 6 MDuty3: 7 MDuty4: 8 ChDuty1: 0 ChDuty2: 10 ChDuty3: 11 ChDuty4: 12 DesiredAltitude: 1.00 HoverMode: 1.000000 flightAllow: 1.000000  TIME:Thu Jul  4 13:08:56 2013

ROLL: 6.66000 PITCH: 0.05000 YAW: 0.06000 SONAR1: 0.00000 MEDIANFILTERED: 0.00000 MEDIANDIFF: 0.00000 MEDIANINT: 0.00000 RAWSONAR: 0.00000 ROLLRATE: 0.01000 PITCHRATE: 0.02000 U1: 0.01000 U2: 0.02000 U3: 0.00000 U4: 0.00000 MDuty1: 5 MDuty2: 6 MDuty3: 7 MDuty4: 8 ChDuty1: 0 ChDuty2: 10 ChDuty3: 11 ChDuty4: 12 DesiredAltitude: 1.00 HoverMode: 1.000000 flightAllow: 1.000000  TIME:Thu Jul  4 13:08:56 2013

ROLL: 6.66000 PITCH: 0.05000 YAW: 0.06000 SONAR1: 0.00000 MEDIANFILTERED: 0.00000 MEDIANDIFF: 0.00000 MEDIANINT: 0.00000 RAWSONAR: 0.00000 ROLLRATE: 0.01000 PITCHRATE: 0.02000 U1: 0.01000 U2: 0.02000 U3: 0.00000 U4: 0.00000 MDuty1: 5 MDuty2: 6 MDuty3: 7 MDuty4: 8 ChDuty1: 0 ChDuty2: 10 ChDuty3: 11 ChDuty4: 12 DesiredAltitude: 1.00 HoverMode: 1.000000 flightAllow: 1.000000  TIME:Thu Jul  4 13:08:56 2013

ROLL: 6.66000 PITCH: 0.05000 YAW: 0.06000 SONAR1: 0.00000 MEDIANFILTERED: 0.00000 MEDIANDIFF: 0.00000 MEDIANINT: 0.00000 RAWSONAR: 0.00000 ROLLRATE: 0.01000 PITCHRATE: 0.02000 U1: 0.01000 U2: 0.02000 U3: 0.00000 U4: 0.00000 MDuty1: 5 MDuty2: 6 MDuty3: 7 MDuty4: 8 ChDuty1: 0 ChDuty2: 10 ChDuty3: 11 ChDuty4: 12 DesiredAltitude: 1.00 HoverMode: 1.000000 flightAllow: 1.000000  TIME:Thu Jul  4 13:08:56 2013

ROLL: 6.66000 PITCH: 0.05000 YAW: 0.06000 SONAR1: 0.00000 MEDIANFILTERED: 0.00000 MEDIANDIFF: 0.00000 MEDIANINT: 0.00000 RAWSONAR: 0.00000 ROLLRATE: 0.01000 PITCHRATE: 0.02000 U1: 0.01000 U2: 0.02000 U3: 0.00000 U4: 0.00000 MDuty1: 5 MDuty2: 6 MDuty3: 7 MDuty4: 8 ChDuty1: 0 ChDuty2: 10 ChDuty3: 11 ChDuty4: 12 DesiredAltitude: 1.00 HoverMode: 1.000000 flightAllow: 1.000000  TIME:Thu Jul  4 13:08:57 2013

ROLL: 6.66000 PITCH: 0.05000 YAW: 0.06000 SONAR1: 0.00000 MEDIANFILTERED: 0.00000 MEDIANDIFF: 0.00000 MEDIANINT: 0.00000 RAWSONAR: 0.00000 ROLLRATE: 0.01000 PITCHRATE: 0.02000 U1: 0.01000 U2: 0.02000 U3: 0.00000 U4: 0.00000 MDuty1: 5 MDuty2: 6 MDuty3: 7 MDuty4: 8 ChDuty1: 0 ChDuty2: 10 ChDuty3: 11 ChDuty4: 12 DesiredAltitude: 1.00 HoverMode: 1.000000 flightAllow: 1.000000  TIME:Thu Jul  4 13:08:57 2013

ROLL: 6.66000 PITCH: 0.05000 YAW: 0.06000 SONAR1: 0.00000 MEDIANFILTERED: 0.00000 MEDIANDIFF: 0.00000 MEDIANINT: 0.00000 RAWSONAR: 0.00000 ROLLRATE: 0.01000 PITCHRATE: 0.02000 U1: 0.01000 U2: 0.02000 U3: 0.00000 U4: 0.00000 MDuty1: 5 MDuty2: 6 MDuty3: 7 MDuty4: 8 ChDuty1: 0 ChDuty2: 10 ChDuty3: 11 ChDuty4: 12 DesiredAltitude: 1.00 HoverMode: 1.000000 flightAllow: 1.000000  TIME:Thu Jul  4 13:08:57 2013

ROLL: 6.66000 PITCH: 0.05000 YAW: 0.06000 SONAR1: 0.00000 MEDIANFILTERED: 0.00000 MEDIANDIFF: 0.00000 MEDIANINT: 0.00000 RAWSONAR: 0.00000 ROLLRATE: 0.01000 PITCHRATE: 0.02000 U1: 0.01000 U2: 0.02000 U3: 0.00000 U4: 0.00000 MDuty1: 5 MDuty2: 6 MDuty3: 7 MDuty4: 8 ChDuty1: 0 ChDuty2: 10 ChDuty3: 11 ChDuty4: 12 DesiredAltitude: 1.00 HoverMode: 1.000000 flightAllow: 1.000000  TIME:Thu Jul  4 13:08:57 2013

ROLL: 6.66000 PITCH: 0.05000 YAW: 0.06000 SONAR1: 0.00000 MEDIANFILTERED: 0.00000 MEDIANDIFF: 0.00000 MEDIANINT: 0.00000 RAWSONAR: 0.00000 ROLLRATE: 0.01000 PITCHRATE: 0.02000 U1: 0.01000 U2: 0.02000 U3: 0.00000 U4: 0.00000 MDuty1: 5 MDuty2: 6 MDuty3: 7 MDuty4: 8 ChDuty1: 0 ChDuty2: 10 ChDuty3: 11 ChDuty4: 12 DesiredAltitude: 1.00 HoverMode: 1.000000 flightAllow: 1.000000  TIME:Thu Jul  4 13:08:57 2013

ROLL: 6.66000 PITCH: 0.05000 YAW: 0.06000 SONAR1: 0.00000 MEDIANFILTERED: 0.00000 MEDIANDIFF: 0.00000 MEDIANINT: 0.00000 RAWSONAR: 0.00000 ROLLRATE: 0.01000 PITCHRATE: 0.02000 U1: 0.01000 U2: 0.02000 U3: 0.00000 U4: 0.00000 MDuty1: 5 MDuty2: 6 MDuty3: 7 MDuty4: 8 ChDuty1: 0 ChDuty2: 10 ChDuty3: 11 ChDuty4: 12 DesiredAltitude: 1.00 HoverMode: 1.000000 flightAllow: 1.000000  TIME:Thu Jul  4 13:08:57 2013

ROLL: 6.66000 PITCH: 0.05000 YAW: 0.06000 SONAR1: 0.00000 MEDIANFILTERED: 0.00000 MEDIANDIFF: 0.00000 MEDIANINT: 0.00000 RAWSONAR: 0.00000 ROLLRATE: 0.01000 PITCHRATE: 0.02000 U1: 0.01000 U2: 0.02000 U3: 0.00000 U4: 0.00000 MDuty1: 5 MDuty2: 6 MDuty3: 7 MDuty4: 8 ChDuty1: 0 ChDuty2: 10 ChDuty3: 11 ChDuty4: 12 DesiredAltitude: 1.00 HoverMode: 1.000000 flightAllow: 1.000000  TIME:Thu Jul  4 13:08:57 2013

ROLL: 6.66000 PITCH: 0.05000 YAW: 0.06000 SONAR1: 0.00000 MEDIANFILTERED: 0.00000 MEDIANDIFF: 0.00000 MEDIANINT: 0.00000 RAWSONAR: 0.00000 ROLLRATE: 0.01000 PITCHRATE: 0.02000 U1: 0.01000 U2: 0.02000 U3: 0.00000 U4: 0.00000 MDuty1: 5 MDuty2: 6 MDuty3: 7 MDuty4: 8 ChDuty1: 0 ChDuty2: 10 ChDuty3: 11 ChDuty4: 12 DesiredAltitude: 1.00 HoverMode: 1.000000 flightAllow: 1.000000  TIME:Thu Jul  4 13:08:57 2013

ROLL: 6.66000 PITCH: 0.05000 YAW: 0.06000 SONAR1: 0.00000 MEDIANFILTERED: 0.00000 MEDIANDIFF: 0.00000 MEDIANINT: 0.00000 RAWSONAR: 0.00000 ROLLRATE: 0.01000 PITCHRATE: 0.02000 U1: 0.01000 U2: 0.02000 U3: 0.00000 U4: 0.00000 MDuty1: 5 MDuty2: 6 MDuty3: 7 MDuty4: 8 ChDuty1: 0 ChDuty2: 10 ChDuty3: 11 ChDuty4: 12 DesiredAltitude: 1.00 HoverMode: 1.000000 flightAllow: 1.000000  TIME:Thu Jul  4 13:08:57 2013

ROLL: 6.66000 PITCH: 0.05000 YAW: 0.06000 SONAR1: 0.00000 MEDIANFILTERED: 0.00000 MEDIANDIFF: 0.00000 MEDIANINT: 0.00000 RAWSONAR: 0.00000 ROLLRATE: 0.01000 PITCHRATE: 0.02000 U1: 0.01000 U2: 0.02000 U3: 0.00000 U4: 0.00000 MDuty1: 5 MDuty2: 6 MDuty3: 7 MDuty4: 8 ChDuty1: 0 ChDuty2: 10 ChDuty3: 11 ChDuty4: 12 DesiredAltitude: 1.00 HoverMode: 1.000000 flightAllow: 1.000000  TIME:Thu Jul  4 13:08:57 2013

ROLL: 6.66000 PITCH: 0.05000 YAW: 0.06000 SONAR1: 0.00000 MEDIANFILTERED: 0.00000 MEDIANDIFF: 0.00000 MEDIANINT: 0.00000 RAWSONAR: 0.00000 ROLLRATE: 0.01000 PITCHRATE: 0.02000 U1: 0.01000 U2: 0.02000 U3: 0.00000 U4: 0.00000 MDuty1: 5 MDuty2: 6 MDuty3: 7 MDuty4: 8 ChDuty1: 0 ChDuty2: 10 ChDuty3: 11 ChDuty4: 12 DesiredAltitude: 1.00 HoverMode: 1.000000 flightAllow: 1.000000  TIME:Thu Jul  4 13:08:58 2013

ROLL: 6.66000 PITCH: 0.05000 YAW: 0.06000 SONAR1: 0.00000 MEDIANFILTERED: 0.00000 MEDIANDIFF: 0.00000 MEDIANINT: 0.00000 RAWSONAR: 0.00000 ROLLRATE: 0.01000 PITCHRATE: 0.02000 U1: 0.01000 U2: 0.02000 U3: 0.00000 U4: 0.00000 MDuty1: 5 MDuty2: 6 MDuty3: 7 MDuty4: 8 ChDuty1: 0 ChDuty2: 10 ChDuty3: 11 ChDuty4: 12 DesiredAltitude: 1.00 HoverMode: 1.000000 flightAllow: 1.000000  TIME:Thu Jul  4 13:08:58 2013

ROLL: 6.66000 PITCH: 0.05000 YAW: 0.06000 SONAR1: 0.00000 MEDIANFILTERED: 0.00000 MEDIANDIFF: 0.00000 MEDIANINT: 0.00000 RAWSONAR: 0.00000 ROLLRATE: 0.01000 PITCHRATE: 0.02000 U1: 0.01000 U2: 0.02000 U3: 0.00000 U4: 0.00000 MDuty1: 5 MDuty2: 6 MDuty3: 7 MDuty4: 8 ChDuty1: 0 ChDuty2: 10 ChDuty3: 11 ChDuty4: 12 DesiredAltitude: 1.00 HoverMode: 1.000000 flightAllow: 1.000000  TIME:Thu Jul  4 13:08:58 2013

ROLL: 6.66000 PITCH: 0.05000 YAW: 0.06000 SONAR1: 0.00000 MEDIANFILTERED: 0.00000 MEDIANDIFF: 0.00000 MEDIANINT: 0.00000 RAWSONAR: 0.00000 ROLLRATE: 0.01000 PITCHRATE: 0.02000 U1: 0.01000 U2: 0.02000 U3: 0.00000 U4: 0.00000 MDuty1: 5 MDuty2: 6 MDuty3: 7 MDuty4: 8 ChDuty1: 0 ChDuty2: 10 ChDuty3: 11 ChDuty4: 12 DesiredAltitude: 1.00 HoverMode: 1.000000 flightAllow: 1.000000  TIME:Thu Jul  4 13:08:58 2013

ROLL: 6.66000 PITCH: 0.05000 YAW: 0.06000 SONAR1: 0.00000 MEDIANFILTERED: 0.00000 MEDIANDIFF: 0.00000 MEDIANINT: 0.00000 RAWSONAR: 0.00000 ROLLRATE: 0.01000 PITCHRATE: 0.02000 U1: 0.01000 U2: 0.02000 U3: 0.00000 U4: 0.00000 MDuty1: 5 MDuty2: 6 MDuty3: 7 MDuty4: 8 ChDuty1: 0 ChDuty2: 10 ChDuty3: 11 ChDuty4: 12 DesiredAltitude: 1.00 HoverMode: 1.000000 flightAllow: 1.000000  TIME:Thu Jul  4 13:08:58 2013

ROLL: 6.66000 PITCH: 0.05000 YAW: 0.06000 SONAR1: 0.00000 MEDIANFILTERED: 0.00000 MEDIANDIFF: 0.00000 MEDIANINT: 0.00000 RAWSONAR: 0.00000 ROLLRATE: 0.01000 PITCHRATE: 0.02000 U1: 0.01000 U2: 0.02000 U3: 0.00000 U4: 0.00000 MDuty1: 5 MDuty2: 6 MDuty3: 7 MDuty4: 8 ChDuty1: 0 ChDuty2: 10 ChDuty3: 11 ChDuty4: 12 DesiredAltitude: 1.00 HoverMode: 1.000000 flightAllow: 1.000000  TIME:Thu Jul  4 13:08:58 2013

ROLL: 6.66000 PITCH: 0.05000 YAW: 0.06000 SONAR1: 0.00000 MEDIANFILTERED: 0.00000 MEDIANDIFF: 0.00000 MEDIANINT: 0.00000 RAWSONAR: 0.00000 ROLLRATE: 0.01000 PITCHRATE: 0.02000 U1: 0.01000 U2: 0.02000 U3: 0.00000 U4: 0.00000 MDuty1: 5 MDuty2: 6 MDuty3: 7 MDuty4: 8 ChDuty1: 0 ChDuty2: 10 ChDuty3: 11 ChDuty4: 12 DesiredAltitude: 1.00 HoverMode: 1.000000 flightAllow: 1.000000  TIME:Thu Jul  4 13:08:58 2013

ROLL: 6.66000 PITCH: 0.05000 YAW: 0.06000 SONAR1: 0.00000 MEDIANFILTERED: 0.00000 MEDIANDIFF: 0.00000 MEDIANINT: 0.00000 RAWSONAR: 0.00000 ROLLRATE: 0.01000 PITCHRATE: 0.02000 U1: 0.01000 U2: 0.02000 U3: 0.00000 U4: 0.00000 MDuty1: 5 MDuty2: 6 MDuty3: 7 MDuty4: 8 ChDuty1: 0 ChDuty2: 10 ChDuty3: 11 ChDuty4: 12 DesiredAltitude: 1.00 HoverMode: 1.000000 flightAllow: 1.000000  TIME:Thu Jul  4 13:08:58 2013

ROLL: 6.66000 PITCH: 0.05000 YAW: 0.06000 SONAR1: 0.00000 MEDIANFILTERED: 0.00000 MEDIANDIFF: 0.00000 MEDIANINT: 0.00000 RAWSONAR: 0.00000 ROLLRATE: 0.01000 PITCHRATE: 0.02000 U1: 0.01000 U2: 0.02000 U3: 0.00000 U4: 0.00000 MDuty1: 5 MDuty2: 6 MDuty3: 7 MDuty4: 8 ChDuty1: 0 ChDuty2: 10 ChDuty3: 11 ChDuty4: 12 DesiredAltitude: 1.00 HoverMode: 1.000000 flightAllow: 1.000000  TIME:Thu Jul  4 13:08:58 2013

ROLL: 6.66000 PITCH: 0.05000 YAW: 0.06000 SONAR1: 0.00000 MEDIANFILTERED: 0.00000 MEDIANDIFF: 0.00000 MEDIANINT: 0.00000 RAWSONAR: 0.00000 ROLLRATE: 0.01000 PITCHRATE: 0.02000 U1: 0.01000 U2: 0.02000 U3: 0.00000 U4: 0.00000 MDuty1: 5 MDuty2: 6 MDuty3: 7 MDuty4: 8 ChDuty1: 0 ChDuty2: 10 ChDuty3: 11 ChDuty4: 12 DesiredAltitude: 1.00 HoverMode: 1.000000 flightAllow: 1.000000  TIME:Thu Jul  4 13:08:58 2013

ROLL: 6.66000 PITCH: 0.05000 YAW: 0.06000 SONAR1: 0.00000 MEDIANFILTERED: 0.00000 MEDIANDIFF: 0.00000 MEDIANINT: 0.00000 RAWSONAR: 0.00000 ROLLRATE: 0.01000 PITCHRATE: 0.02000 U1: 0.01000 U2: 0.02000 U3: 0.00000 U4: 0.00000 MDuty1: 5 MDuty2: 6 MDuty3: 7 MDuty4: 8 ChDuty1: 0 ChDuty2: 10 ChDuty3: 11 ChDuty4: 12 DesiredAltitude: 1.00 HoverMode: 1.000000 flightAllow: 1.000000  TIME:Thu Jul  4 13:08:59 2013

ROLL: 6.66000 PITCH: 0.05000 YAW: 0.06000 SONAR1: 0.00000 MEDIANFILTERED: 0.00000 MEDIANDIFF: 0.00000 MEDIANINT: 0.00000 RAWSONAR: 0.00000 ROLLRATE: 0.01000 PITCHRATE: 0.02000 U1: 0.01000 U2: 0.02000 U3: 0.00000 U4: 0.00000 MDuty1: 5 MDuty2: 6 MDuty3: 7 MDuty4: 8 ChDuty1: 0 ChDuty2: 10 ChDuty3: 11 ChDuty4: 12 DesiredAltitude: 1.00 HoverMode: 1.000000 flightAllow: 1.000000  TIME:Thu Jul  4 13:08:59 2013

ROLL: 6.66000 PITCH: 0.05000 YAW: 0.06000 SONAR1: 0.00000 MEDIANFILTERED: 0.00000 MEDIANDIFF: 0.00000 MEDIANINT: 0.00000 RAWSONAR: 0.00000 ROLLRATE: 0.01000 PITCHRATE: 0.02000 U1: 0.01000 U2: 0.02000 U3: 0.00000 U4: 0.00000 MDuty1: 5 MDuty2: 6 MDuty3: 7 MDuty4: 8 ChDuty1: 0 ChDuty2: 10 ChDuty3: 11 ChDuty4: 12 DesiredAltitude: 1.00 HoverMode: 1.000000 flightAllow: 1.000000  TIME:Thu Jul  4 13:08:59 2013

ROLL: 6.66000 PITCH: 0.05000 YAW: 0.06000 SONAR1: 0.00000 MEDIANFILTERED: 0.00000 MEDIANDIFF: 0.00000 MEDIANINT: 0.00000 RAWSONAR: 0.00000 ROLLRATE: 0.01000 PITCHRATE: 0.02000 U1: 0.01000 U2: 0.02000 U3: 0.00000 U4: 0.00000 MDuty1: 5 MDuty2: 6 MDuty3: 7 MDuty4: 8 ChDuty1: 0 ChDuty2: 10 ChDuty3: 11 ChDuty4: 12 DesiredAltitude: 1.00 HoverMode: 1.000000 flightAllow: 1.000000  TIME:Thu Jul  4 13:08:59 2013

ROLL: 6.66000 PITCH: 0.05000 YAW: 0.06000 SONAR1: 0.00000 MEDIANFILTERED: 0.00000 MEDIANDIFF: 0.00000 MEDIANINT: 0.00000 RAWSONAR: 0.00000 ROLLRATE: 0.01000 PITCHRATE: 0.02000 U1: 0.01000 U2: 0.02000 U3: 0.00000 U4: 0.00000 MDuty1: 5 MDuty2: 6 MDuty3: 7 MDuty4: 8 ChDuty1: 0 ChDuty2: 10 ChDuty3: 11 ChDuty4: 12 DesiredAltitude: 1.00 HoverMode: 1.000000 flightAllow: 1.000000  TIME:Thu Jul  4 13:08:59 2013

ROLL: 6.66000 PITCH: 0.05000 YAW: 0.06000 SONAR1: 0.00000 MEDIANFILTERED: 0.00000 MEDIANDIFF: 0.00000 MEDIANINT: 0.00000 RAWSONAR: 0.00000 ROLLRATE: 0.01000 PITCHRATE: 0.02000 U1: 0.01000 U2: 0.02000 U3: 0.00000 U4: 0.00000 MDuty1: 5 MDuty2: 6 MDuty3: 7 MDuty4: 8 ChDuty1: 0 ChDuty2: 10 ChDuty3: 11 ChDuty4: 12 DesiredAltitude: 1.00 HoverMode: 1.000000 flightAllow: 1.000000  TIME:Thu Jul  4 13:08:59 2013

ROLL: 6.66000 PITCH: 0.05000 YAW: 0.06000 SONAR1: 0.00000 MEDIANFILTERED: 0.00000 MEDIANDIFF: 0.00000 MEDIANINT: 0.00000 RAWSONAR: 0.00000 ROLLRATE: 0.01000 PITCHRATE: 0.02000 U1: 0.01000 U2: 0.02000 U3: 0.00000 U4: 0.00000 MDuty1: 5 MDuty2: 6 MDuty3: 7 MDuty4: 8 ChDuty1: 0 ChDuty2: 10 ChDuty3: 11 ChDuty4: 12 DesiredAltitude: 1.00 HoverMode: 1.000000 flightAllow: 1.000000  TIME:Thu Jul  4 13:08:59 2013

ROLL: 6.66000 PITCH: 0.05000 YAW: 0.06000 SONAR1: 0.00000 MEDIANFILTERED: 0.00000 MEDIANDIFF: 0.00000 MEDIANINT: 0.00000 RAWSONAR: 0.00000 ROLLRATE: 0.01000 PITCHRATE: 0.02000 U1: 0.01000 U2: 0.02000 U3: 0.00000 U4: 0.00000 MDuty1: 5 MDuty2: 6 MDuty3: 7 MDuty4: 8 ChDuty1: 0 ChDuty2: 10 ChDuty3: 11 ChDuty4: 12 DesiredAltitude: 1.00 HoverMode: 1.000000 flightAllow: 1.000000  TIME:Thu Jul  4 13:08:59 2013

ROLL: 6.66000 PITCH: 0.05000 YAW: 0.06000 SONAR1: 0.00000 MEDIANFILTERED: 0.00000 MEDIANDIFF: 0.00000 MEDIANINT: 0.00000 RAWSONAR: 0.00000 ROLLRATE: 0.01000 PITCHRATE: 0.02000 U1: 0.01000 U2: 0.02000 U3: 0.00000 U4: 0.00000 MDuty1: 5 MDuty2: 6 MDuty3: 7 MDuty4: 8 ChDuty1: 0 ChDuty2: 10 ChDuty3: 11 ChDuty4: 12 DesiredAltitude: 1.00 HoverMode: 1.000000 flightAllow: 1.000000  TIME:Thu Jul  4 13:08:59 2013

ROLL: 6.66000 PITCH: 0.05000 YAW: 0.06000 SONAR1: 0.00000 MEDIANFILTERED: 0.00000 MEDIANDIFF: 0.00000 MEDIANINT: 0.00000 RAWSONAR: 0.00000 ROLLRATE: 0.01000 PITCHRATE: 0.02000 U1: 0.01000 U2: 0.02000 U3: 0.00000 U4: 0.00000 MDuty1: 5 MDuty2: 6 MDuty3: 7 MDuty4: 8 ChDuty1: 0 ChDuty2: 10 ChDuty3: 11 ChDuty4: 12 DesiredAltitude: 1.00 HoverMode: 1.000000 flightAllow: 1.000000  TIME:Thu Jul  4 13:08:59 2013

ROLL: 6.66000 PITCH: 0.05000 YAW: 0.06000 SONAR1: 0.00000 MEDIANFILTERED: 0.00000 MEDIANDIFF: 0.00000 MEDIANINT: 0.00000 RAWSONAR: 0.00000 ROLLRATE: 0.01000 PITCHRATE: 0.02000 U1: 0.01000 U2: 0.02000 U3: 0.00000 U4: 0.00000 MDuty1: 5 MDuty2: 6 MDuty3: 7 MDuty4: 8 ChDuty1: 0 ChDuty2: 10 ChDuty3: 11 ChDuty4: 12 DesiredAltitude: 1.00 HoverMode: 1.000000 flightAllow: 1.000000  TIME:Thu Jul  4 13:09:00 2013

ROLL: 6.66000 PITCH: 0.05000 YAW: 0.06000 SONAR1: 0.00000 MEDIANFILTERED: 0.00000 MEDIANDIFF: 0.00000 MEDIANINT: 0.00000 RAWSONAR: 0.00000 ROLLRATE: 0.01000 PITCHRATE: 0.02000 U1: 0.01000 U2: 0.02000 U3: 0.00000 U4: 0.00000 MDuty1: 5 MDuty2: 6 MDuty3: 7 MDuty4: 8 ChDuty1: 0 ChDuty2: 10 ChDuty3: 11 ChDuty4: 12 DesiredAltitude: 1.00 HoverMode: 1.000000 flightAllow: 1.000000  TIME:Thu Jul  4 13:09:00 2013

